wf_vcd.vcd
$date
	Fri Sep 27 20:05:40 2024
$end
$version
	Questa Intel Starter FPGA Edition Version 2023.3
$end
$timescale
	1ns
$end
$scope module digits_network_tb $end
$scope module u_network $end
$scope module u_l2 $end
$var wire 1 ! o_spike [10] $end
$var wire 1 " o_spike [9] $end
$var wire 1 # o_spike [8] $end
$var wire 1 $ o_spike [7] $end
$var wire 1 % o_spike [6] $end
$var wire 1 & o_spike [5] $end
$var wire 1 ' o_spike [4] $end
$var wire 1 ( o_spike [3] $end
$var wire 1 ) o_spike [2] $end
$var wire 1 * o_spike [1] $end
$upscope $end
$upscope $end
$upscope $end
$enddefinitions $end
#0
0!
0"
0#
0$
0%
0&
0'
0(
0)
0*
0!
0"
0#
0$
0%
0&
0'
0(
0)
0*
#8250
1*
#8270
0*
#16310
1)
#16330
0)
#24370
1(
#24390
0(
#32430
1'
#32450
0'
#40490
1&
#40510
0&
#48550
1%
#48570
0%
#56610
1$
#56630
0$
#64670
1#
#64690
0#
#72730
1"
#72750
0"
#80790
1!
#80810
0!
#96890
1*
#96910
0*
#104950
1)
#104970
0)
#113010
1(
#113030
0(
#121070
1'
#121090
0'
#129130
1&
#129150
0&
#137190
1%
#137210
0%
#145250
1$
#145270
0$
#153310
1#
#153330
0#
#161370
1"
#161390
0"
#169430
1!
#169450
0!
#185530
1*
#185550
0*
#193590
1)
#193610
0)
#201650
1(
#201670
0(
#209710
1'
#209730
0'
#217770
1&
#217790
0&
#225830
1%
#225850
0%
#233890
1$
#233910
0$
#241950
1#
#241970
0#
#250010
1"
#250030
0"
#258070
1!
#258090
0!
#274170
1*
#274190
0*
#282230
1)
#282250
0)
#290290
1(
#290310
0(
#298350
1'
#298370
0'
#306410
1&
#306430
0&
#314470
1%
#314490
0%
#322530
1$
#322550
0$
#330590
1#
#330610
0#
#338650
1"
#338670
0"
#346710
1!
#346730
0!
#362810
1*
#362830
0*
#370870
1)
#370890
0)
#378930
1(
#378950
0(
#386990
1'
#387010
0'
#395050
1&
#395070
0&
#403110
1%
#403130
0%
#411170
1$
#411190
0$
#419230
1#
#419250
0#
#427290
1"
#427310
0"
#435350
1"
#435370
0"
#451450
1*
#451470
0*
#459510
1)
#459530
0)
#467570
1(
#467590
0(
#475630
1'
#475650
0'
#483690
1&
#483710
0&
#491750
1%
#491770
0%
#499810
1$
#499830
0$
#507870
1#
#507890
0#
#515930
1"
#515950
0"
#523990
1"
#524010
0"
#540090
1*
#540110
0*
#548150
1)
#548170
0)
#556210
1(
#556230
0(
#564270
1'
#564290
0'
#572330
1&
#572350
0&
#580390
1%
#580410
0%
#588450
1$
#588470
0$
#596510
1#
#596530
0#
#604570
1"
#604590
0"
#612630
1"
#612650
0"
#628730
1*
#628750
0*
#636790
1)
#636810
0)
#644850
1(
#644870
0(
#652910
1'
#652930
0'
#660970
1&
#660990
0&
#669030
1%
#669050
0%
#677090
1$
#677110
0$
#685150
1#
#685170
0#
#693210
1"
#693230
0"
#701270
1"
#701290
0"
#717370
1*
#717390
0*
#725430
1)
#725450
0)
#733490
1(
#733510
0(
#741550
1'
#741570
0'
#749610
1&
#749630
0&
#757670
1%
#757690
0%
#765730
1$
#765750
0$
#773790
1#
#773810
0#
#781850
1"
#781870
0"
#789910
1"
#789930
0"
#806010
1*
#806030
0*
#814070
1)
#814090
0)
#822130
1(
#822150
0(
#830190
1'
#830210
0'
#838250
1&
#838270
0&
#846310
1%
#846330
0%
#854370
1$
#854390
0$
#862430
1#
#862450
0#
#870490
1"
#870510
0"
#878550
1"
#878570
0"
#894650
1*
#894670
0*
#902710
1)
#902730
0)
#910770
1(
#910790
0(
#918830
1'
#918850
0'
#926890
1&
#926910
0&
#934950
1%
#934970
0%
#943010
1$
#943030
0$
#951070
1#
#951090
0#
#959130
1!
#959150
0!
#967190
1"
#967210
0"
#983290
1*
#983310
0*
#991350
1)
#991370
0)
#999410
1(
#999430
0(
#1007470
1'
#1007490
0'
#1015530
1&
#1015550
0&
#1023590
1%
#1023610
0%
#1031650
1$
#1031670
0$
#1039710
1#
#1039730
0#
#1047770
1!
#1047790
0!
#1055830
1"
#1055850
0"
#1071930
1*
#1071950
0*
#1079990
1)
#1080010
0)
#1088050
1(
#1088070
0(
#1096110
1'
#1096130
0'
#1104170
1&
#1104190
0&
#1112230
1%
#1112250
0%
#1120290
1$
#1120310
0$
#1128350
1#
#1128370
0#
#1136410
1!
#1136430
0!
#1144470
1"
#1144490
0"
#1160570
1*
#1160590
0*
#1168630
1)
#1168650
0)
#1176690
1(
#1176710
0(
#1184750
1'
#1184770
0'
#1192810
1&
#1192830
0&
#1200870
1%
#1200890
0%
#1208930
1$
#1208950
0$
#1216990
1#
#1217010
0#
#1225050
1!
#1225070
0!
#1233110
1"
#1233130
0"
#1249210
1*
#1249230
0*
#1257270
1)
#1257290
0)
#1265330
1(
#1265350
0(
#1273390
1'
#1273410
0'
#1281450
1&
#1281470
0&
#1289510
1%
#1289530
0%
#1297570
1$
#1297590
0$
#1305630
1#
#1305650
0#
#1313690
1!
#1313710
0!
#1321750
1"
#1321770
0"
#1337850
1*
#1337870
0*
#1345910
1)
#1345930
0)
#1353970
1(
#1353990
0(
#1362030
1'
#1362050
0'
#1370090
1&
#1370110
0&
#1378150
1%
#1378170
0%
#1386210
1$
#1386230
0$
#1394270
1#
#1394290
0#
#1402330
1!
#1402350
0!
#1410390
1"
#1410410
0"
#1426490
1*
#1426510
0*
#1434550
1)
#1434570
0)
#1442610
1(
#1442630
0(
#1450670
1'
#1450690
0'
#1458730
1&
#1458750
0&
#1466790
1%
#1466810
0%
#1474850
1$
#1474870
0$
#1482910
1#
#1482930
0#
#1490970
1!
#1490990
0!
#1499030
1"
#1499050
0"
#1515130
1*
#1515150
0*
#1523190
1)
#1523210
0)
#1531250
1(
#1531270
0(
#1539310
1'
#1539330
0'
#1547370
1&
#1547390
0&
#1555430
1%
#1555450
0%
#1563490
1$
#1563510
0$
#1571550
1#
#1571570
0#
#1579610
1!
#1579630
0!
#1587670
1"
#1587690
0"
#1603770
1*
#1603790
0*
#1611830
1)
#1611850
0)
#1619890
1(
#1619910
0(
#1627950
1'
#1627970
0'
#1636010
1&
#1636030
0&
#1644070
1%
#1644090
0%
#1652130
1$
#1652150
0$
#1660190
1#
#1660210
0#
#1668250
1!
#1668270
0!
#1676310
1"
#1676330
0"
#1692410
1*
#1692430
0*
#1700470
1)
#1700490
0)
#1708530
1(
#1708550
0(
#1716590
1'
#1716610
0'
#1724650
1&
#1724670
0&
#1732710
1%
#1732730
0%
#1740770
1$
#1740790
0$
#1748830
1#
#1748850
0#
#1756890
1!
#1756910
0!
#1764950
1"
#1764970
0"
#1781050
1*
#1781070
0*
#1789110
1)
#1789130
0)
#1797170
1(
#1797190
0(
#1805230
1'
#1805250
0'
#1813290
1&
#1813310
0&
#1821350
1%
#1821370
0%
#1829410
1$
#1829430
0$
#1837470
1#
#1837490
0#
#1845530
1!
#1845550
0!
#1853590
1"
#1853610
0"
#1869690
1*
#1869710
0*
#1877750
1)
#1877770
0)
#1885810
1(
#1885830
0(
#1893870
1'
#1893890
0'
#1901930
1&
#1901950
0&
#1909990
1%
#1910010
0%
#1918050
1$
#1918070
0$
#1926110
1#
#1926130
0#
#1934170
1!
#1934190
0!
#1942230
1"
#1942250
0"
#1958330
1*
#1958350
0*
#1966390
1)
#1966410
0)
#1974450
1(
#1974470
0(
#1982510
1'
#1982530
0'
#1990570
1&
#1990590
0&
#1998630
1%
#1998650
0%
#2006690
1$
#2006710
0$
#2014750
1#
#2014770
0#
#2022810
1!
#2022830
0!
#2030870
1"
#2030890
0"
#2046970
1*
#2046990
0*
#2055030
1)
#2055050
0)
#2063090
1(
#2063110
0(
#2071150
1'
#2071170
0'
#2079210
1&
#2079230
0&
#2087270
1%
#2087290
0%
#2095330
1$
#2095350
0$
#2103390
1#
#2103410
0#
#2111450
1!
#2111470
0!
#2119510
1"
#2119530
0"
#2135610
1*
#2135630
0*
#2143670
1)
#2143690
0)
#2151730
1(
#2151750
0(
#2159790
1'
#2159810
0'
#2167850
1&
#2167870
0&
#2175910
1%
#2175930
0%
#2183970
1$
#2183990
0$
#2192030
1#
#2192050
0#
#2200090
1!
#2200110
0!
#2208150
1"
#2208170
0"
#2224250
1*
#2224270
0*
#2232310
1)
#2232330
0)
#2240370
1(
#2240390
0(
#2248430
1'
#2248450
0'
#2256490
1&
#2256510
0&
#2264550
1%
#2264570
0%
#2272610
1$
#2272630
0$
#2280670
1#
#2280690
0#
#2288730
1!
#2288750
0!
#2296790
1"
#2296810
0"
#2312890
1*
#2312910
0*
#2320950
1)
#2320970
0)
#2329010
1(
#2329030
0(
#2337070
1'
#2337090
0'
#2345130
1&
#2345150
0&
#2353190
1%
#2353210
0%
#2361250
1$
#2361270
0$
#2369310
1#
#2369330
0#
#2377370
1!
#2377390
0!
#2385430
1"
#2385450
0"
#2401530
1*
#2401550
0*
#2409590
1)
#2409610
0)
#2417650
1(
#2417670
0(
#2425710
1'
#2425730
0'
#2433770
1&
#2433790
0&
#2441830
1%
#2441850
0%
#2449890
1$
#2449910
0$
#2457950
1#
#2457970
0#
#2466010
1!
#2466030
0!
#2474070
1"
#2474090
0"
#2490170
1*
#2490190
0*
#2498230
1)
#2498250
0)
#2506290
1(
#2506310
0(
#2514350
1'
#2514370
0'
#2522410
1&
#2522430
0&
#2530470
1%
#2530490
0%
#2538530
1$
#2538550
0$
#2546590
1#
#2546610
0#
#2554650
1!
#2554670
0!
#2562710
1"
#2562730
0"
#2578810
1*
#2578830
0*
#2586870
1)
#2586890
0)
#2594930
1(
#2594950
0(
#2602990
1'
#2603010
0'
#2611050
1&
#2611070
0&
#2619110
1%
#2619130
0%
#2627170
1$
#2627190
0$
#2635230
1#
#2635250
0#
#2643290
1!
#2643310
0!
#2651350
1"
#2651370
0"
#2667450
1*
#2667470
0*
#2675510
1)
#2675530
0)
#2683570
1(
#2683590
0(
#2691630
1'
#2691650
0'
#2699690
1&
#2699710
0&
#2707750
1%
#2707770
0%
#2715810
1$
#2715830
0$
#2723870
1#
#2723890
0#
#2731930
1!
#2731950
0!
#2739990
1"
#2740010
0"
#2756090
1*
#2756110
0*
#2764150
1)
#2764170
0)
#2772210
1(
#2772230
0(
#2780270
1'
#2780290
0'
#2788330
1&
#2788350
0&
#2796390
1%
#2796410
0%
#2804450
1$
#2804470
0$
#2812510
1#
#2812530
0#
#2820570
1!
#2820590
0!
#2828630
1"
#2828650
0"
#2844730
1*
#2844750
0*
#2852790
1)
#2852810
0)
#2860850
1(
#2860870
0(
#2868910
1'
#2868930
0'
#2876970
1&
#2876990
0&
#2885030
1%
#2885050
0%
#2893090
1$
#2893110
0$
#2901150
1#
#2901170
0#
#2909210
1!
#2909230
0!
#2917270
1"
#2917290
0"
#2933370
1*
#2933390
0*
#2941430
1)
#2941450
0)
#2949490
1(
#2949510
0(
#2957550
1'
#2957570
0'
#2965610
1&
#2965630
0&
#2973670
1%
#2973690
0%
#2981730
1$
#2981750
0$
#2989790
1#
#2989810
0#
#2997850
1!
#2997870
0!
#3005910
1"
#3005930
0"
#3022010
1*
#3022030
0*
#3030070
1)
#3030090
0)
#3038130
1(
#3038150
0(
#3046190
1'
#3046210
0'
#3054250
1&
#3054270
0&
#3062310
1%
#3062330
0%
#3070370
1$
#3070390
0$
#3078430
1#
#3078450
0#
#3086490
1!
#3086510
0!
#3094550
1"
#3094570
0"
#3110650
1*
#3110670
0*
#3118710
1)
#3118730
0)
#3126770
1(
#3126790
0(
#3134830
1'
#3134850
0'
#3142890
1&
#3142910
0&
#3150950
1%
#3150970
0%
#3159010
1$
#3159030
0$
#3167070
1#
#3167090
0#
#3175130
1!
#3175150
0!
#3183190
1"
#3183210
0"
#3199290
1*
#3199310
0*
#3207350
1)
#3207370
0)
#3215410
1(
#3215430
0(
#3223470
1'
#3223490
0'
#3231530
1&
#3231550
0&
#3239590
1%
#3239610
0%
#3247650
1$
#3247670
0$
#3255710
1#
#3255730
0#
#3263770
1!
#3263790
0!
#3271830
1"
#3271850
0"
#3287930
1*
#3287950
0*
#3295990
1)
#3296010
0)
#3304050
1(
#3304070
0(
#3312110
1'
#3312130
0'
#3320170
1&
#3320190
0&
#3328230
1%
#3328250
0%
#3336290
1$
#3336310
0$
#3344350
1#
#3344370
0#
#3352410
1!
#3352430
0!
#3360470
1"
#3360490
0"
#3376570
1*
#3376590
0*
#3384630
1)
#3384650
0)
#3392690
1(
#3392710
0(
#3400750
1'
#3400770
0'
#3408810
1&
#3408830
0&
#3416870
1%
#3416890
0%
#3424930
1$
#3424950
0$
#3432990
1#
#3433010
0#
#3441050
1!
#3441070
0!
#3449110
1"
#3449130
0"
#3465210
1*
#3465230
0*
#3473270
1)
#3473290
0)
#3481330
1(
#3481350
0(
#3489390
1'
#3489410
0'
#3497450
1&
#3497470
0&
#3505510
1%
#3505530
0%
#3513570
1$
#3513590
0$
#3521630
1#
#3521650
0#
#3537750
1"
#3537770
0"
#3553850
1*
#3553870
0*
#3561910
1)
#3561930
0)
#3569970
1(
#3569990
0(
#3578030
1'
#3578050
0'
#3586090
1&
#3586110
0&
#3594150
1%
#3594170
0%
#3602210
1$
#3602230
0$
#3610270
1#
#3610290
0#
#3626390
1"
#3626410
0"
#3642490
1*
#3642510
0*
#3650550
1)
#3650570
0)
#3658610
1(
#3658630
0(
#3666670
1'
#3666690
0'
#3674730
1&
#3674750
0&
#3682790
1%
#3682810
0%
#3690850
1$
#3690870
0$
#3698910
1#
#3698930
0#
#3715030
1"
#3715050
0"
#3731130
1*
#3731150
0*
#3739190
1)
#3739210
0)
#3747250
1(
#3747270
0(
#3755310
1'
#3755330
0'
#3763370
1&
#3763390
0&
#3771430
1%
#3771450
0%
#3779490
1$
#3779510
0$
#3787550
1#
#3787570
0#
#3803670
1"
#3803690
0"
#3819770
1*
#3819790
0*
#3827830
1)
#3827850
0)
#3835890
1(
#3835910
0(
#3843950
1'
#3843970
0'
#3852010
1&
#3852030
0&
#3860070
1%
#3860090
0%
#3868130
1$
#3868150
0$
#3876190
1#
#3876210
0#
#3892310
1"
#3892330
0"
#3908410
1*
#3908430
0*
#3916470
1)
#3916490
0)
#3924530
1(
#3924550
0(
#3932590
1'
#3932610
0'
#3940650
1&
#3940670
0&
#3948710
1%
#3948730
0%
#3956770
1$
#3956790
0$
#3964830
1#
#3964850
0#
#3972890
1"
#3972910
0"
#3980950
1"
#3980970
0"
#3997050
1*
#3997070
0*
#4005110
1)
#4005130
0)
#4013170
1(
#4013190
0(
#4021230
1'
#4021250
0'
#4029290
1&
#4029310
0&
#4037350
1%
#4037370
0%
#4045410
1$
#4045430
0$
#4053470
1#
#4053490
0#
#4061530
1"
#4061550
0"
#4069590
1"
#4069610
0"
#4085690
1*
#4085710
0*
#4093750
1)
#4093770
0)
#4101810
1(
#4101830
0(
#4109870
1'
#4109890
0'
#4117930
1&
#4117950
0&
#4125990
1%
#4126010
0%
#4134050
1$
#4134070
0$
#4142110
1#
#4142130
0#
#4150170
1"
#4150190
0"
#4158230
1"
#4158250
0"
#4174330
1*
#4174350
0*
#4182390
1)
#4182410
0)
#4190450
1(
#4190470
0(
#4198510
1'
#4198530
0'
#4206570
1&
#4206590
0&
#4214630
1%
#4214650
0%
#4222690
1$
#4222710
0$
#4230750
1#
#4230770
0#
#4238810
1"
#4238830
0"
#4246870
1"
#4246890
0"
#4262970
1*
#4262990
0*
#4271030
1)
#4271050
0)
#4279090
1(
#4279110
0(
#4287150
1'
#4287170
0'
#4295210
1&
#4295230
0&
#4303270
1%
#4303290
0%
#4311330
1$
#4311350
0$
#4319390
1#
#4319410
0#
#4327450
1"
#4327470
0"
#4335510
1"
#4335530
0"
#4351610
1*
#4351630
0*
#4359670
1)
#4359690
0)
#4367730
1(
#4367750
0(
#4375790
1'
#4375810
0'
#4383850
1&
#4383870
0&
#4391910
1%
#4391930
0%
#4399970
1$
#4399990
0$
#4408030
1#
#4408050
0#
#4416090
1"
#4416110
0"
#4424150
1"
#4424170
0"
#4440250
1*
#4440270
0*
#4448310
1)
#4448330
0)
#4456370
1(
#4456390
0(
#4464430
1'
#4464450
0'
#4472490
1&
#4472510
0&
#4480550
1%
#4480570
0%
#4488610
1$
#4488630
0$
#4496670
1#
#4496690
0#
#4504730
1"
#4504750
0"
#4528890
1*
#4528910
0*
#4536950
1)
#4536970
0)
#4545010
1(
#4545030
0(
#4553070
1'
#4553090
0'
#4561130
1&
#4561150
0&
#4569190
1%
#4569210
0%
#4577250
1$
#4577270
0$
#4585310
1#
#4585330
0#
#4593370
1"
#4593390
0"
#4617530
1*
#4617550
0*
#4625590
1)
#4625610
0)
#4633650
1(
#4633670
0(
#4641710
1'
#4641730
0'
#4649770
1&
#4649790
0&
#4657830
1%
#4657850
0%
#4665890
1$
#4665910
0$
#4673950
1#
#4673970
0#
#4682010
1"
#4682030
0"
#4706170
1*
#4706190
0*
#4714230
1)
#4714250
0)
#4722290
1(
#4722310
0(
#4730350
1'
#4730370
0'
#4738410
1&
#4738430
0&
#4746470
1%
#4746490
0%
#4754530
1$
#4754550
0$
#4762590
1#
#4762610
0#
#4770650
1"
#4770670
0"
#4794810
1*
#4794830
0*
#4802870
1)
#4802890
0)
#4810930
1(
#4810950
0(
#4818990
1'
#4819010
0'
#4827050
1&
#4827070
0&
#4835110
1%
#4835130
0%
#4843170
1$
#4843190
0$
#4851230
1#
#4851250
0#
#4859290
1"
#4859310
0"
#4883450
1*
#4883470
0*
#4891510
1)
#4891530
0)
#4899570
1(
#4899590
0(
#4907630
1'
#4907650
0'
#4915690
1&
#4915710
0&
#4923750
1%
#4923770
0%
#4931810
1$
#4931830
0$
#4939870
1#
#4939890
0#
#4947930
1"
#4947950
0"
#4972090
1*
#4972110
0*
#4980150
1)
#4980170
0)
#4988210
1(
#4988230
0(
#4996270
1'
#4996290
0'
#5004330
1&
#5004350
0&
#5012390
1%
#5012410
0%
#5020450
1$
#5020470
0$
#5028510
1#
#5028530
0#
#5036570
1"
#5036590
0"
#5060730
1*
#5060750
0*
#5068790
1)
#5068810
0)
#5076850
1(
#5076870
0(
#5084910
1'
#5084930
0'
#5092970
1&
#5092990
0&
#5101030
1%
#5101050
0%
#5109090
1$
#5109110
0$
#5117150
1#
#5117170
0#
#5125210
1"
#5125230
0"
#5149370
1*
#5149390
0*
#5157430
1)
#5157450
0)
#5165490
1(
#5165510
0(
#5173550
1'
#5173570
0'
#5181610
1&
#5181630
0&
#5189670
1%
#5189690
0%
#5197730
1$
#5197750
0$
#5205790
1#
#5205810
0#
#5213850
1"
#5213870
0"
#5238010
1*
#5238030
0*
#5246070
1)
#5246090
0)
#5254130
1(
#5254150
0(
#5262190
1'
#5262210
0'
#5270250
1&
#5270270
0&
#5278310
1%
#5278330
0%
#5286370
1$
#5286390
0$
#5294430
1#
#5294450
0#
#5302490
1"
#5302510
0"
#5326650
1*
#5326670
0*
#5334710
1)
#5334730
0)
#5342770
1(
#5342790
0(
#5350830
1'
#5350850
0'
#5358890
1&
#5358910
0&
#5366950
1%
#5366970
0%
#5375010
1$
#5375030
0$
#5383070
1#
#5383090
0#
#5391130
1"
#5391150
0"
#5415290
1*
#5415310
0*
#5423350
1)
#5423370
0)
#5431410
1(
#5431430
0(
#5439470
1'
#5439490
0'
#5447530
1&
#5447550
0&
#5455590
1%
#5455610
0%
#5463650
1$
#5463670
0$
#5471710
1#
#5471730
0#
#5479770
1"
#5479790
0"
#5503930
1*
#5503950
0*
#5511990
1)
#5512010
0)
#5520050
1(
#5520070
0(
#5528110
1'
#5528130
0'
#5536170
1&
#5536190
0&
#5544230
1%
#5544250
0%
#5552290
1$
#5552310
0$
#5560350
1#
#5560370
0#
#5568410
1"
#5568430
0"
#5592570
1*
#5592590
0*
#5600630
1)
#5600650
0)
#5608690
1(
#5608710
0(
#5616750
1'
#5616770
0'
#5624810
1&
#5624830
0&
#5632870
1%
#5632890
0%
#5640930
1$
#5640950
0$
#5648990
1#
#5649010
0#
#5657050
1"
#5657070
0"
#5681210
1*
#5681230
0*
#5689270
1)
#5689290
0)
#5697330
1(
#5697350
0(
#5705390
1'
#5705410
0'
#5713450
1&
#5713470
0&
#5721510
1%
#5721530
0%
#5729570
1$
#5729590
0$
#5737630
1#
#5737650
0#
#5745690
1"
#5745710
0"
#5769850
1*
#5769870
0*
#5777910
1)
#5777930
0)
#5785970
1(
#5785990
0(
#5794030
1'
#5794050
0'
#5802090
1&
#5802110
0&
#5810150
1%
#5810170
0%
#5818210
1$
#5818230
0$
#5826270
1#
#5826290
0#
#5834330
1"
#5834350
0"
#5858490
1*
#5858510
0*
#5866550
1)
#5866570
0)
#5874610
1(
#5874630
0(
#5882670
1'
#5882690
0'
#5890730
1&
#5890750
0&
#5898790
1%
#5898810
0%
#5906850
1$
#5906870
0$
#5914910
1#
#5914930
0#
#5922970
1"
#5922990
0"
#5947130
1*
#5947150
0*
#5955190
1)
#5955210
0)
#5963250
1(
#5963270
0(
#5971310
1'
#5971330
0'
#5979370
1&
#5979390
0&
#5987430
1%
#5987450
0%
#5995490
1$
#5995510
0$
#6003550
1#
#6003570
0#
#6011610
1"
#6011630
0"
#6035770
1*
#6035790
0*
#6043830
1)
#6043850
0)
#6051890
1(
#6051910
0(
#6059950
1'
#6059970
0'
#6068010
1&
#6068030
0&
#6076070
1%
#6076090
0%
#6084130
1$
#6084150
0$
#6092190
1#
#6092210
0#
#6100250
1"
#6100270
0"
#6124410
1*
#6124430
0*
#6132470
1)
#6132490
0)
#6140530
1(
#6140550
0(
#6148590
1'
#6148610
0'
#6156650
1&
#6156670
0&
#6164710
1%
#6164730
0%
#6172770
1$
#6172790
0$
#6180830
1#
#6180850
0#
#6188890
1"
#6188910
0"
#6213050
1*
#6213070
0*
#6221110
1)
#6221130
0)
#6229170
1(
#6229190
0(
#6237230
1'
#6237250
0'
#6245290
1&
#6245310
0&
#6253350
1%
#6253370
0%
#6261410
1$
#6261430
0$
#6269470
1#
#6269490
0#
#6277530
1"
#6277550
0"
#6301690
1*
#6301710
0*
#6309750
1)
#6309770
0)
#6317810
1(
#6317830
0(
#6325870
1'
#6325890
0'
#6333930
1&
#6333950
0&
#6341990
1%
#6342010
0%
#6350050
1$
#6350070
0$
#6358110
1#
#6358130
0#
#6366170
1"
#6366190
0"
#6390330
1*
#6390350
0*
#6398390
1)
#6398410
0)
#6406450
1(
#6406470
0(
#6414510
1'
#6414530
0'
#6422570
1&
#6422590
0&
#6430630
1%
#6430650
0%
#6438690
1$
#6438710
0$
#6446750
1#
#6446770
0#
#6454810
1"
#6454830
0"
#6478970
1*
#6478990
0*
#6487030
1)
#6487050
0)
#6495090
1(
#6495110
0(
#6503150
1'
#6503170
0'
#6511210
1&
#6511230
0&
#6519270
1%
#6519290
0%
#6527330
1$
#6527350
0$
#6535390
1#
#6535410
0#
#6543450
1"
#6543470
0"
#6567610
1*
#6567630
0*
#6575670
1)
#6575690
0)
#6583730
1(
#6583750
0(
#6591790
1'
#6591810
0'
#6599850
1&
#6599870
0&
#6607910
1%
#6607930
0%
#6615970
1$
#6615990
0$
#6624030
1#
#6624050
0#
#6632090
1"
#6632110
0"
#6656250
1*
#6656270
0*
#6664310
1)
#6664330
0)
#6672370
1(
#6672390
0(
#6680430
1'
#6680450
0'
#6688490
1&
#6688510
0&
#6696550
1%
#6696570
0%
#6704610
1$
#6704630
0$
#6712670
1#
#6712690
0#
#6720730
1"
#6720750
0"
#6744890
1*
#6744910
0*
#6752950
1)
#6752970
0)
#6761010
1(
#6761030
0(
#6769070
1'
#6769090
0'
#6777130
1&
#6777150
0&
#6785190
1%
#6785210
0%
#6793250
1$
#6793270
0$
#6801310
1#
#6801330
0#
#6809370
1"
#6809390
0"
#6833530
1*
#6833550
0*
#6841590
1)
#6841610
0)
#6849650
1(
#6849670
0(
#6857710
1'
#6857730
0'
#6865770
1&
#6865790
0&
#6873830
1%
#6873850
0%
#6881890
1$
#6881910
0$
#6889950
1#
#6889970
0#
#6898010
1"
#6898030
0"
#6922170
1*
#6922190
0*
#6930230
1)
#6930250
0)
#6938290
1(
#6938310
0(
#6946350
1'
#6946370
0'
#6954410
1&
#6954430
0&
#6962470
1%
#6962490
0%
#6970530
1$
#6970550
0$
#6978590
1#
#6978610
0#
#6986650
1"
#6986670
0"
#7010810
1*
#7010830
0*
#7018870
1)
#7018890
0)
#7026930
1(
#7026950
0(
#7034990
1'
#7035010
0'
#7043050
1&
#7043070
0&
#7051110
1%
#7051130
0%
#7059170
1$
#7059190
0$
#7067230
1#
#7067250
0#
#7075290
1"
#7075310
0"
#7099450
1*
#7099470
0*
#7107510
1)
#7107530
0)
#7115570
1(
#7115590
0(
#7123630
1'
#7123650
0'
#7131690
1&
#7131710
0&
#7139750
1%
#7139770
0%
#7147810
1$
#7147830
0$
#7155870
1#
#7155890
0#
#7163930
1"
#7163950
0"
#7188090
1*
#7188110
0*
#7196150
1)
#7196170
0)
#7204210
1(
#7204230
0(
#7212270
1'
#7212290
0'
#7220330
1&
#7220350
0&
#7228390
1%
#7228410
0%
#7236450
1$
#7236470
0$
#7244510
1#
#7244530
0#
#7252570
1"
#7252590
0"
#7276730
1*
#7276750
0*
#7284790
1)
#7284810
0)
#7292850
1(
#7292870
0(
#7300910
1'
#7300930
0'
#7308970
1&
#7308990
0&
#7317030
1%
#7317050
0%
#7325090
1$
#7325110
0$
#7333150
1#
#7333170
0#
#7341210
1"
#7341230
0"
#7365370
1*
#7365390
0*
#7373430
1)
#7373450
0)
#7381490
1(
#7381510
0(
#7389550
1'
#7389570
0'
#7397610
1&
#7397630
0&
#7405670
1%
#7405690
0%
#7413730
1$
#7413750
0$
#7421790
1#
#7421810
0#
#7429850
1"
#7429870
0"
#7454010
1*
#7454030
0*
#7462070
1)
#7462090
0)
#7470130
1(
#7470150
0(
#7478190
1'
#7478210
0'
#7486250
1&
#7486270
0&
#7494310
1%
#7494330
0%
#7502370
1$
#7502390
0$
#7510430
1#
#7510450
0#
#7518490
1"
#7518510
0"
#7542650
1*
#7542670
0*
#7550710
1)
#7550730
0)
#7558770
1(
#7558790
0(
#7566830
1'
#7566850
0'
#7574890
1&
#7574910
0&
#7582950
1%
#7582970
0%
#7591010
1$
#7591030
0$
#7599070
1#
#7599090
0#
#7607130
1"
#7607150
0"
#7631290
1*
#7631310
0*
#7639350
1)
#7639370
0)
#7647410
1(
#7647430
0(
#7655470
1'
#7655490
0'
#7663530
1&
#7663550
0&
#7671590
1%
#7671610
0%
#7679650
1$
#7679670
0$
#7687710
1#
#7687730
0#
#7695770
1"
#7695790
0"
#7719930
1*
#7719950
0*
#7727990
1)
#7728010
0)
#7736050
1(
#7736070
0(
#7744110
1'
#7744130
0'
#7752170
1&
#7752190
0&
#7760230
1%
#7760250
0%
#7768290
1$
#7768310
0$
#7776350
1#
#7776370
0#
#7784410
1"
#7784430
0"
#7808570
1*
#7808590
0*
#7816630
1)
#7816650
0)
#7824690
1(
#7824710
0(
#7832750
1'
#7832770
0'
#7840810
1&
#7840830
0&
#7848870
1%
#7848890
0%
#7856930
1$
#7856950
0$
#7864990
1#
#7865010
0#
#7873050
1"
#7873070
0"
#7897210
1*
#7897230
0*
#7905270
1)
#7905290
0)
#7913330
1(
#7913350
0(
#7921390
1'
#7921410
0'
#7929450
1&
#7929470
0&
#7937510
1%
#7937530
0%
#7945570
1$
#7945590
0$
#7953630
1#
#7953650
0#
#7961690
1"
#7961710
0"
#7985850
1*
#7985870
0*
#7993910
1)
#7993930
0)
#8001970
1(
#8001990
0(
#8010030
1'
#8010050
0'
#8018090
1&
#8018110
0&
#8026150
1%
#8026170
0%
#8034210
1$
#8034230
0$
#8042270
1#
#8042290
0#
#8050330
1"
#8050350
0"
#8074490
1*
#8074510
0*
#8082550
1)
#8082570
0)
#8090610
1(
#8090630
0(
#8098670
1'
#8098690
0'
#8106730
1&
#8106750
0&
#8114790
1%
#8114810
0%
#8122850
1$
#8122870
0$
#8130910
1#
#8130930
0#
#8138970
1"
#8138990
0"
#8163130
1*
#8163150
0*
#8171190
1)
#8171210
0)
#8179250
1(
#8179270
0(
#8187310
1'
#8187330
0'
#8195370
1&
#8195390
0&
#8203430
1%
#8203450
0%
#8211490
1$
#8211510
0$
#8219550
1#
#8219570
0#
#8227610
1"
#8227630
0"
#8251770
1*
#8251790
0*
#8259830
1)
#8259850
0)
#8267890
1(
#8267910
0(
#8275950
1'
#8275970
0'
#8284010
1&
#8284030
0&
#8292070
1%
#8292090
0%
#8300130
1$
#8300150
0$
#8308190
1#
#8308210
0#
#8316250
1"
#8316270
0"
#8340410
1*
#8340430
0*
#8348470
1)
#8348490
0)
#8356530
1(
#8356550
0(
#8364590
1'
#8364610
0'
#8372650
1&
#8372670
0&
#8380710
1%
#8380730
0%
#8388770
1$
#8388790
0$
#8396830
1#
#8396850
0#
#8404890
1"
#8404910
0"
#8429050
1*
#8429070
0*
#8437110
1)
#8437130
0)
#8445170
1(
#8445190
0(
#8453230
1'
#8453250
0'
#8461290
1&
#8461310
0&
#8469350
1%
#8469370
0%
#8477410
1$
#8477430
0$
#8485470
1#
#8485490
0#
#8493530
1"
#8493550
0"
#8517690
1*
#8517710
0*
#8525750
1)
#8525770
0)
#8533810
1(
#8533830
0(
#8541870
1'
#8541890
0'
#8549930
1&
#8549950
0&
#8557990
1%
#8558010
0%
#8566050
1$
#8566070
0$
#8574110
1#
#8574130
0#
#8582170
1"
#8582190
0"
#8606330
1*
#8606350
0*
#8614390
1)
#8614410
0)
#8622450
1(
#8622470
0(
#8630510
1'
#8630530
0'
#8638570
1&
#8638590
0&
#8646630
1%
#8646650
0%
#8654690
1$
#8654710
0$
#8662750
1#
#8662770
0#
#8670810
1"
